(['C:\\Users\\Яна\\Desktop\\ВЛАД\\Project\\python\\qpd-test\\main.py'],
 ['C:\\Users\\Яна\\Desktop\\ВЛАД\\Project\\python\\qpd-test'],
 [],
 ['C:\\Users\\Яна\\AppData\\Local\\Programs\\Python\\Python312\\Lib\\site-packages\\_pyinstaller_hooks_contrib\\hooks\\stdhooks',
  'C:\\Users\\Яна\\AppData\\Local\\Programs\\Python\\Python312\\Lib\\site-packages\\_pyinstaller_hooks_contrib\\hooks'],
 {},
 [],
 [],
 False,
 {},
 [],
 [],
 '3.12.2 (tags/v3.12.2:6abddd9, Feb  6 2024, 21:26:36) [MSC v.1937 64 bit '
 '(AMD64)]',
 [('pyi_rth_inspect',
   'C:\\Users\\Яна\\AppData\\Local\\Programs\\Python\\Python312\\Lib\\site-packages\\PyInstaller\\hooks\\rthooks\\pyi_rth_inspect.py',
   'PYSOURCE'),
  ('main',
   'C:\\Users\\Яна\\Desktop\\ВЛАД\\Project\\python\\qpd-test\\main.py',
   'PYSOURCE')],
 [('inspect',
   'C:\\Users\\Яна\\AppData\\Local\\Programs\\Python\\Python312\\Lib\\inspect.py',
   'PYMODULE'),
  ('importlib',
   'C:\\Users\\Яна\\AppData\\Local\\Programs\\Python\\Python312\\Lib\\importlib\\__init__.py',
   'PYMODULE'),
  ('importlib._bootstrap_external',
   'C:\\Users\\Яна\\AppData\\Local\\Programs\\Python\\Python312\\Lib\\importlib\\_bootstrap_external.py',
   'PYMODULE'),
  ('importlib.metadata',
   'C:\\Users\\Яна\\AppData\\Local\\Programs\\Python\\Python312\\Lib\\importlib\\metadata\\__init__.py',
   'PYMODULE'),
  ('typing',
   'C:\\Users\\Яна\\AppData\\Local\\Programs\\Python\\Python312\\Lib\\typing.py',
   'PYMODULE'),
  ('importlib.abc',
   'C:\\Users\\Яна\\AppData\\Local\\Programs\\Python\\Python312\\Lib\\importlib\\abc.py',
   'PYMODULE'),
  ('importlib.resources.abc',
   'C:\\Users\\Яна\\AppData\\Local\\Programs\\Python\\Python312\\Lib\\importlib\\resources\\abc.py',
   'PYMODULE'),
  ('importlib.resources',
   'C:\\Users\\Яна\\AppData\\Local\\Programs\\Python\\Python312\\Lib\\importlib\\resources\\__init__.py',
   'PYMODULE'),
  ('importlib.resources._legacy',
   'C:\\Users\\Яна\\AppData\\Local\\Programs\\Python\\Python312\\Lib\\importlib\\resources\\_legacy.py',
   'PYMODULE'),
  ('importlib.resources._common',
   'C:\\Users\\Яна\\AppData\\Local\\Programs\\Python\\Python312\\Lib\\importlib\\resources\\_common.py',
   'PYMODULE'),
  ('importlib.resources._adapters',
   'C:\\Users\\Яна\\AppData\\Local\\Programs\\Python\\Python312\\Lib\\importlib\\resources\\_adapters.py',
   'PYMODULE'),
  ('tempfile',
   'C:\\Users\\Яна\\AppData\\Local\\Programs\\Python\\Python312\\Lib\\tempfile.py',
   'PYMODULE'),
  ('random',
   'C:\\Users\\Яна\\AppData\\Local\\Programs\\Python\\Python312\\Lib\\random.py',
   'PYMODULE'),
  ('_strptime',
   'C:\\Users\\Яна\\AppData\\Local\\Programs\\Python\\Python312\\Lib\\_strptime.py',
   'PYMODULE'),
  ('datetime',
   'C:\\Users\\Яна\\AppData\\Local\\Programs\\Python\\Python312\\Lib\\datetime.py',
   'PYMODULE'),
  ('_pydatetime',
   'C:\\Users\\Яна\\AppData\\Local\\Programs\\Python\\Python312\\Lib\\_pydatetime.py',
   'PYMODULE'),
  ('calendar',
   'C:\\Users\\Яна\\AppData\\Local\\Programs\\Python\\Python312\\Lib\\calendar.py',
   'PYMODULE'),
  ('statistics',
   'C:\\Users\\Яна\\AppData\\Local\\Programs\\Python\\Python312\\Lib\\statistics.py',
   'PYMODULE'),
  ('decimal',
   'C:\\Users\\Яна\\AppData\\Local\\Programs\\Python\\Python312\\Lib\\decimal.py',
   'PYMODULE'),
  ('_pydecimal',
   'C:\\Users\\Яна\\AppData\\Local\\Programs\\Python\\Python312\\Lib\\_pydecimal.py',
   'PYMODULE'),
  ('contextvars',
   'C:\\Users\\Яна\\AppData\\Local\\Programs\\Python\\Python312\\Lib\\contextvars.py',
   'PYMODULE'),
  ('fractions',
   'C:\\Users\\Яна\\AppData\\Local\\Programs\\Python\\Python312\\Lib\\fractions.py',
   'PYMODULE'),
  ('numbers',
   'C:\\Users\\Яна\\AppData\\Local\\Programs\\Python\\Python312\\Lib\\numbers.py',
   'PYMODULE'),
  ('hashlib',
   'C:\\Users\\Яна\\AppData\\Local\\Programs\\Python\\Python312\\Lib\\hashlib.py',
   'PYMODULE'),
  ('logging',
   'C:\\Users\\Яна\\AppData\\Local\\Programs\\Python\\Python312\\Lib\\logging\\__init__.py',
   'PYMODULE'),
  ('pickle',
   'C:\\Users\\Яна\\AppData\\Local\\Programs\\Python\\Python312\\Lib\\pickle.py',
   'PYMODULE'),
  ('pprint',
   'C:\\Users\\Яна\\AppData\\Local\\Programs\\Python\\Python312\\Lib\\pprint.py',
   'PYMODULE'),
  ('dataclasses',
   'C:\\Users\\Яна\\AppData\\Local\\Programs\\Python\\Python312\\Lib\\dataclasses.py',
   'PYMODULE'),
  ('copy',
   'C:\\Users\\Яна\\AppData\\Local\\Programs\\Python\\Python312\\Lib\\copy.py',
   'PYMODULE'),
  ('_compat_pickle',
   'C:\\Users\\Яна\\AppData\\Local\\Programs\\Python\\Python312\\Lib\\_compat_pickle.py',
   'PYMODULE'),
  ('struct',
   'C:\\Users\\Яна\\AppData\\Local\\Programs\\Python\\Python312\\Lib\\struct.py',
   'PYMODULE'),
  ('threading',
   'C:\\Users\\Яна\\AppData\\Local\\Programs\\Python\\Python312\\Lib\\threading.py',
   'PYMODULE'),
  ('_threading_local',
   'C:\\Users\\Яна\\AppData\\Local\\Programs\\Python\\Python312\\Lib\\_threading_local.py',
   'PYMODULE'),
  ('string',
   'C:\\Users\\Яна\\AppData\\Local\\Programs\\Python\\Python312\\Lib\\string.py',
   'PYMODULE'),
  ('bisect',
   'C:\\Users\\Яна\\AppData\\Local\\Programs\\Python\\Python312\\Lib\\bisect.py',
   'PYMODULE'),
  ('shutil',
   'C:\\Users\\Яна\\AppData\\Local\\Programs\\Python\\Python312\\Lib\\shutil.py',
   'PYMODULE'),
  ('tarfile',
   'C:\\Users\\Яна\\AppData\\Local\\Programs\\Python\\Python312\\Lib\\tarfile.py',
   'PYMODULE'),
  ('gzip',
   'C:\\Users\\Яна\\AppData\\Local\\Programs\\Python\\Python312\\Lib\\gzip.py',
   'PYMODULE'),
  ('_compression',
   'C:\\Users\\Яна\\AppData\\Local\\Programs\\Python\\Python312\\Lib\\_compression.py',
   'PYMODULE'),
  ('lzma',
   'C:\\Users\\Яна\\AppData\\Local\\Programs\\Python\\Python312\\Lib\\lzma.py',
   'PYMODULE'),
  ('bz2',
   'C:\\Users\\Яна\\AppData\\Local\\Programs\\Python\\Python312\\Lib\\bz2.py',
   'PYMODULE'),
  ('fnmatch',
   'C:\\Users\\Яна\\AppData\\Local\\Programs\\Python\\Python312\\Lib\\fnmatch.py',
   'PYMODULE'),
  ('importlib._abc',
   'C:\\Users\\Яна\\AppData\\Local\\Programs\\Python\\Python312\\Lib\\importlib\\_abc.py',
   'PYMODULE'),
  ('importlib.metadata._itertools',
   'C:\\Users\\Яна\\AppData\\Local\\Programs\\Python\\Python312\\Lib\\importlib\\metadata\\_itertools.py',
   'PYMODULE'),
  ('importlib.metadata._functools',
   'C:\\Users\\Яна\\AppData\\Local\\Programs\\Python\\Python312\\Lib\\importlib\\metadata\\_functools.py',
   'PYMODULE'),
  ('importlib.metadata._collections',
   'C:\\Users\\Яна\\AppData\\Local\\Programs\\Python\\Python312\\Lib\\importlib\\metadata\\_collections.py',
   'PYMODULE'),
  ('importlib.metadata._meta',
   'C:\\Users\\Яна\\AppData\\Local\\Programs\\Python\\Python312\\Lib\\importlib\\metadata\\_meta.py',
   'PYMODULE'),
  ('importlib.metadata._adapters',
   'C:\\Users\\Яна\\AppData\\Local\\Programs\\Python\\Python312\\Lib\\importlib\\metadata\\_adapters.py',
   'PYMODULE'),
  ('importlib.metadata._text',
   'C:\\Users\\Яна\\AppData\\Local\\Programs\\Python\\Python312\\Lib\\importlib\\metadata\\_text.py',
   'PYMODULE'),
  ('email.message',
   'C:\\Users\\Яна\\AppData\\Local\\Programs\\Python\\Python312\\Lib\\email\\message.py',
   'PYMODULE'),
  ('email.policy',
   'C:\\Users\\Яна\\AppData\\Local\\Programs\\Python\\Python312\\Lib\\email\\policy.py',
   'PYMODULE'),
  ('email.contentmanager',
   'C:\\Users\\Яна\\AppData\\Local\\Programs\\Python\\Python312\\Lib\\email\\contentmanager.py',
   'PYMODULE'),
  ('email.quoprimime',
   'C:\\Users\\Яна\\AppData\\Local\\Programs\\Python\\Python312\\Lib\\email\\quoprimime.py',
   'PYMODULE'),
  ('email.headerregistry',
   'C:\\Users\\Яна\\AppData\\Local\\Programs\\Python\\Python312\\Lib\\email\\headerregistry.py',
   'PYMODULE'),
  ('email._header_value_parser',
   'C:\\Users\\Яна\\AppData\\Local\\Programs\\Python\\Python312\\Lib\\email\\_header_value_parser.py',
   'PYMODULE'),
  ('urllib',
   'C:\\Users\\Яна\\AppData\\Local\\Programs\\Python\\Python312\\Lib\\urllib\\__init__.py',
   'PYMODULE'),
  ('email.iterators',
   'C:\\Users\\Яна\\AppData\\Local\\Programs\\Python\\Python312\\Lib\\email\\iterators.py',
   'PYMODULE'),
  ('email.generator',
   'C:\\Users\\Яна\\AppData\\Local\\Programs\\Python\\Python312\\Lib\\email\\generator.py',
   'PYMODULE'),
  ('email._encoded_words',
   'C:\\Users\\Яна\\AppData\\Local\\Programs\\Python\\Python312\\Lib\\email\\_encoded_words.py',
   'PYMODULE'),
  ('base64',
   'C:\\Users\\Яна\\AppData\\Local\\Programs\\Python\\Python312\\Lib\\base64.py',
   'PYMODULE'),
  ('getopt',
   'C:\\Users\\Яна\\AppData\\Local\\Programs\\Python\\Python312\\Lib\\getopt.py',
   'PYMODULE'),
  ('gettext',
   'C:\\Users\\Яна\\AppData\\Local\\Programs\\Python\\Python312\\Lib\\gettext.py',
   'PYMODULE'),
  ('email.charset',
   'C:\\Users\\Яна\\AppData\\Local\\Programs\\Python\\Python312\\Lib\\email\\charset.py',
   'PYMODULE'),
  ('email.encoders',
   'C:\\Users\\Яна\\AppData\\Local\\Programs\\Python\\Python312\\Lib\\email\\encoders.py',
   'PYMODULE'),
  ('email.base64mime',
   'C:\\Users\\Яна\\AppData\\Local\\Programs\\Python\\Python312\\Lib\\email\\base64mime.py',
   'PYMODULE'),
  ('email._policybase',
   'C:\\Users\\Яна\\AppData\\Local\\Programs\\Python\\Python312\\Lib\\email\\_policybase.py',
   'PYMODULE'),
  ('email.header',
   'C:\\Users\\Яна\\AppData\\Local\\Programs\\Python\\Python312\\Lib\\email\\header.py',
   'PYMODULE'),
  ('email.errors',
   'C:\\Users\\Яна\\AppData\\Local\\Programs\\Python\\Python312\\Lib\\email\\errors.py',
   'PYMODULE'),
  ('email.utils',
   'C:\\Users\\Яна\\AppData\\Local\\Programs\\Python\\Python312\\Lib\\email\\utils.py',
   'PYMODULE'),
  ('email._parseaddr',
   'C:\\Users\\Яна\\AppData\\Local\\Programs\\Python\\Python312\\Lib\\email\\_parseaddr.py',
   'PYMODULE'),
  ('urllib.parse',
   'C:\\Users\\Яна\\AppData\\Local\\Programs\\Python\\Python312\\Lib\\urllib\\parse.py',
   'PYMODULE'),
  ('ipaddress',
   'C:\\Users\\Яна\\AppData\\Local\\Programs\\Python\\Python312\\Lib\\ipaddress.py',
   'PYMODULE'),
  ('socket',
   'C:\\Users\\Яна\\AppData\\Local\\Programs\\Python\\Python312\\Lib\\socket.py',
   'PYMODULE'),
  ('selectors',
   'C:\\Users\\Яна\\AppData\\Local\\Programs\\Python\\Python312\\Lib\\selectors.py',
   'PYMODULE'),
  ('quopri',
   'C:\\Users\\Яна\\AppData\\Local\\Programs\\Python\\Python312\\Lib\\quopri.py',
   'PYMODULE'),
  ('contextlib',
   'C:\\Users\\Яна\\AppData\\Local\\Programs\\Python\\Python312\\Lib\\contextlib.py',
   'PYMODULE'),
  ('textwrap',
   'C:\\Users\\Яна\\AppData\\Local\\Programs\\Python\\Python312\\Lib\\textwrap.py',
   'PYMODULE'),
  ('zipfile',
   'C:\\Users\\Яна\\AppData\\Local\\Programs\\Python\\Python312\\Lib\\zipfile\\__init__.py',
   'PYMODULE'),
  ('zipfile._path',
   'C:\\Users\\Яна\\AppData\\Local\\Programs\\Python\\Python312\\Lib\\zipfile\\_path\\__init__.py',
   'PYMODULE'),
  ('zipfile._path.glob',
   'C:\\Users\\Яна\\AppData\\Local\\Programs\\Python\\Python312\\Lib\\zipfile\\_path\\glob.py',
   'PYMODULE'),
  ('py_compile',
   'C:\\Users\\Яна\\AppData\\Local\\Programs\\Python\\Python312\\Lib\\py_compile.py',
   'PYMODULE'),
  ('importlib.util',
   'C:\\Users\\Яна\\AppData\\Local\\Programs\\Python\\Python312\\Lib\\importlib\\util.py',
   'PYMODULE'),
  ('pathlib',
   'C:\\Users\\Яна\\AppData\\Local\\Programs\\Python\\Python312\\Lib\\pathlib.py',
   'PYMODULE'),
  ('email',
   'C:\\Users\\Яна\\AppData\\Local\\Programs\\Python\\Python312\\Lib\\email\\__init__.py',
   'PYMODULE'),
  ('email.parser',
   'C:\\Users\\Яна\\AppData\\Local\\Programs\\Python\\Python312\\Lib\\email\\parser.py',
   'PYMODULE'),
  ('email.feedparser',
   'C:\\Users\\Яна\\AppData\\Local\\Programs\\Python\\Python312\\Lib\\email\\feedparser.py',
   'PYMODULE'),
  ('csv',
   'C:\\Users\\Яна\\AppData\\Local\\Programs\\Python\\Python312\\Lib\\csv.py',
   'PYMODULE'),
  ('importlib.readers',
   'C:\\Users\\Яна\\AppData\\Local\\Programs\\Python\\Python312\\Lib\\importlib\\readers.py',
   'PYMODULE'),
  ('importlib.resources.readers',
   'C:\\Users\\Яна\\AppData\\Local\\Programs\\Python\\Python312\\Lib\\importlib\\resources\\readers.py',
   'PYMODULE'),
  ('importlib.resources._itertools',
   'C:\\Users\\Яна\\AppData\\Local\\Programs\\Python\\Python312\\Lib\\importlib\\resources\\_itertools.py',
   'PYMODULE'),
  ('importlib._bootstrap',
   'C:\\Users\\Яна\\AppData\\Local\\Programs\\Python\\Python312\\Lib\\importlib\\_bootstrap.py',
   'PYMODULE'),
  ('argparse',
   'C:\\Users\\Яна\\AppData\\Local\\Programs\\Python\\Python312\\Lib\\argparse.py',
   'PYMODULE'),
  ('token',
   'C:\\Users\\Яна\\AppData\\Local\\Programs\\Python\\Python312\\Lib\\token.py',
   'PYMODULE'),
  ('tokenize',
   'C:\\Users\\Яна\\AppData\\Local\\Programs\\Python\\Python312\\Lib\\tokenize.py',
   'PYMODULE'),
  ('importlib.machinery',
   'C:\\Users\\Яна\\AppData\\Local\\Programs\\Python\\Python312\\Lib\\importlib\\machinery.py',
   'PYMODULE'),
  ('dis',
   'C:\\Users\\Яна\\AppData\\Local\\Programs\\Python\\Python312\\Lib\\dis.py',
   'PYMODULE'),
  ('opcode',
   'C:\\Users\\Яна\\AppData\\Local\\Programs\\Python\\Python312\\Lib\\opcode.py',
   'PYMODULE'),
  ('ast',
   'C:\\Users\\Яна\\AppData\\Local\\Programs\\Python\\Python312\\Lib\\ast.py',
   'PYMODULE'),
  ('_py_abc',
   'C:\\Users\\Яна\\AppData\\Local\\Programs\\Python\\Python312\\Lib\\_py_abc.py',
   'PYMODULE'),
  ('stringprep',
   'C:\\Users\\Яна\\AppData\\Local\\Programs\\Python\\Python312\\Lib\\stringprep.py',
   'PYMODULE'),
  ('subprocess',
   'C:\\Users\\Яна\\AppData\\Local\\Programs\\Python\\Python312\\Lib\\subprocess.py',
   'PYMODULE'),
  ('signal',
   'C:\\Users\\Яна\\AppData\\Local\\Programs\\Python\\Python312\\Lib\\signal.py',
   'PYMODULE'),
  ('tracemalloc',
   'C:\\Users\\Яна\\AppData\\Local\\Programs\\Python\\Python312\\Lib\\tracemalloc.py',
   'PYMODULE')],
 [('python312.dll',
   'C:\\Users\\Яна\\AppData\\Local\\Programs\\Python\\Python312\\python312.dll',
   'BINARY'),
  ('_decimal.pyd',
   'C:\\Users\\Яна\\AppData\\Local\\Programs\\Python\\Python312\\DLLs\\_decimal.pyd',
   'EXTENSION'),
  ('_hashlib.pyd',
   'C:\\Users\\Яна\\AppData\\Local\\Programs\\Python\\Python312\\DLLs\\_hashlib.pyd',
   'EXTENSION'),
  ('_lzma.pyd',
   'C:\\Users\\Яна\\AppData\\Local\\Programs\\Python\\Python312\\DLLs\\_lzma.pyd',
   'EXTENSION'),
  ('_bz2.pyd',
   'C:\\Users\\Яна\\AppData\\Local\\Programs\\Python\\Python312\\DLLs\\_bz2.pyd',
   'EXTENSION'),
  ('unicodedata.pyd',
   'C:\\Users\\Яна\\AppData\\Local\\Programs\\Python\\Python312\\DLLs\\unicodedata.pyd',
   'EXTENSION'),
  ('select.pyd',
   'C:\\Users\\Яна\\AppData\\Local\\Programs\\Python\\Python312\\DLLs\\select.pyd',
   'EXTENSION'),
  ('_socket.pyd',
   'C:\\Users\\Яна\\AppData\\Local\\Programs\\Python\\Python312\\DLLs\\_socket.pyd',
   'EXTENSION'),
  ('api-ms-win-crt-convert-l1-1-0.dll',
   'C:\\Windows\\system32\\api-ms-win-crt-convert-l1-1-0.dll',
   'BINARY'),
  ('api-ms-win-crt-filesystem-l1-1-0.dll',
   'C:\\Windows\\system32\\api-ms-win-crt-filesystem-l1-1-0.dll',
   'BINARY'),
  ('VCRUNTIME140.dll',
   'C:\\Users\\Яна\\AppData\\Local\\Programs\\Python\\Python312\\VCRUNTIME140.dll',
   'BINARY'),
  ('api-ms-win-crt-runtime-l1-1-0.dll',
   'C:\\Windows\\system32\\api-ms-win-crt-runtime-l1-1-0.dll',
   'BINARY'),
  ('api-ms-win-crt-process-l1-1-0.dll',
   'C:\\Windows\\system32\\api-ms-win-crt-process-l1-1-0.dll',
   'BINARY'),
  ('api-ms-win-crt-locale-l1-1-0.dll',
   'C:\\Windows\\system32\\api-ms-win-crt-locale-l1-1-0.dll',
   'BINARY'),
  ('api-ms-win-crt-environment-l1-1-0.dll',
   'C:\\Windows\\system32\\api-ms-win-crt-environment-l1-1-0.dll',
   'BINARY'),
  ('api-ms-win-crt-stdio-l1-1-0.dll',
   'C:\\Windows\\system32\\api-ms-win-crt-stdio-l1-1-0.dll',
   'BINARY'),
  ('api-ms-win-crt-time-l1-1-0.dll',
   'C:\\Windows\\system32\\api-ms-win-crt-time-l1-1-0.dll',
   'BINARY'),
  ('api-ms-win-crt-string-l1-1-0.dll',
   'C:\\Windows\\system32\\api-ms-win-crt-string-l1-1-0.dll',
   'BINARY'),
  ('api-ms-win-crt-math-l1-1-0.dll',
   'C:\\Windows\\system32\\api-ms-win-crt-math-l1-1-0.dll',
   'BINARY'),
  ('api-ms-win-crt-heap-l1-1-0.dll',
   'C:\\Windows\\system32\\api-ms-win-crt-heap-l1-1-0.dll',
   'BINARY'),
  ('api-ms-win-crt-conio-l1-1-0.dll',
   'C:\\Windows\\system32\\api-ms-win-crt-conio-l1-1-0.dll',
   'BINARY'),
  ('libcrypto-3.dll',
   'C:\\Users\\Яна\\AppData\\Local\\Programs\\Python\\Python312\\DLLs\\libcrypto-3.dll',
   'BINARY'),
  ('ucrtbase.dll', 'C:\\Windows\\system32\\ucrtbase.dll', 'BINARY'),
  ('api-ms-win-crt-utility-l1-1-0.dll',
   'C:\\Windows\\system32\\api-ms-win-crt-utility-l1-1-0.dll',
   'BINARY'),
  ('api-ms-win-core-processthreads-l1-1-1.dll',
   'C:\\Windows\\system32\\api-ms-win-core-processthreads-l1-1-1.dll',
   'BINARY'),
  ('api-ms-win-core-profile-l1-1-0.dll',
   'C:\\Windows\\system32\\api-ms-win-core-profile-l1-1-0.dll',
   'BINARY'),
  ('api-ms-win-core-file-l2-1-0.dll',
   'C:\\Windows\\system32\\api-ms-win-core-file-l2-1-0.dll',
   'BINARY'),
  ('api-ms-win-core-processenvironment-l1-1-0.dll',
   'C:\\Windows\\system32\\api-ms-win-core-processenvironment-l1-1-0.dll',
   'BINARY'),
  ('api-ms-win-core-file-l1-1-0.dll',
   'C:\\Windows\\system32\\api-ms-win-core-file-l1-1-0.dll',
   'BINARY'),
  ('api-ms-win-core-libraryloader-l1-1-0.dll',
   'C:\\Windows\\system32\\api-ms-win-core-libraryloader-l1-1-0.dll',
   'BINARY'),
  ('api-ms-win-core-heap-l1-1-0.dll',
   'C:\\Windows\\system32\\api-ms-win-core-heap-l1-1-0.dll',
   'BINARY'),
  ('api-ms-win-core-errorhandling-l1-1-0.dll',
   'C:\\Windows\\system32\\api-ms-win-core-errorhandling-l1-1-0.dll',
   'BINARY'),
  ('api-ms-win-core-synch-l1-2-0.dll',
   'C:\\Windows\\system32\\api-ms-win-core-synch-l1-2-0.dll',
   'BINARY'),
  ('api-ms-win-core-handle-l1-1-0.dll',
   'C:\\Windows\\system32\\api-ms-win-core-handle-l1-1-0.dll',
   'BINARY'),
  ('api-ms-win-core-localization-l1-2-0.dll',
   'C:\\Windows\\system32\\api-ms-win-core-localization-l1-2-0.dll',
   'BINARY'),
  ('api-ms-win-core-debug-l1-1-0.dll',
   'C:\\Windows\\system32\\api-ms-win-core-debug-l1-1-0.dll',
   'BINARY'),
  ('api-ms-win-core-datetime-l1-1-0.dll',
   'C:\\Windows\\system32\\api-ms-win-core-datetime-l1-1-0.dll',
   'BINARY'),
  ('api-ms-win-core-console-l1-1-0.dll',
   'C:\\Windows\\system32\\api-ms-win-core-console-l1-1-0.dll',
   'BINARY'),
  ('api-ms-win-core-processthreads-l1-1-0.dll',
   'C:\\Windows\\system32\\api-ms-win-core-processthreads-l1-1-0.dll',
   'BINARY'),
  ('api-ms-win-core-synch-l1-1-0.dll',
   'C:\\Windows\\system32\\api-ms-win-core-synch-l1-1-0.dll',
   'BINARY'),
  ('api-ms-win-core-namedpipe-l1-1-0.dll',
   'C:\\Windows\\system32\\api-ms-win-core-namedpipe-l1-1-0.dll',
   'BINARY'),
  ('api-ms-win-core-interlocked-l1-1-0.dll',
   'C:\\Windows\\system32\\api-ms-win-core-interlocked-l1-1-0.dll',
   'BINARY'),
  ('api-ms-win-core-util-l1-1-0.dll',
   'C:\\Windows\\system32\\api-ms-win-core-util-l1-1-0.dll',
   'BINARY'),
  ('api-ms-win-core-timezone-l1-1-0.dll',
   'C:\\Windows\\system32\\api-ms-win-core-timezone-l1-1-0.dll',
   'BINARY'),
  ('api-ms-win-core-sysinfo-l1-1-0.dll',
   'C:\\Windows\\system32\\api-ms-win-core-sysinfo-l1-1-0.dll',
   'BINARY'),
  ('api-ms-win-core-file-l1-2-0.dll',
   'C:\\Windows\\system32\\api-ms-win-core-file-l1-2-0.dll',
   'BINARY'),
  ('api-ms-win-core-rtlsupport-l1-1-0.dll',
   'C:\\Windows\\system32\\api-ms-win-core-rtlsupport-l1-1-0.dll',
   'BINARY'),
  ('api-ms-win-core-string-l1-1-0.dll',
   'C:\\Windows\\system32\\api-ms-win-core-string-l1-1-0.dll',
   'BINARY'),
  ('api-ms-win-core-memory-l1-1-0.dll',
   'C:\\Windows\\system32\\api-ms-win-core-memory-l1-1-0.dll',
   'BINARY')],
 [],
 [],
 [('base_library.zip',
   'C:\\Users\\Яна\\Desktop\\ВЛАД\\Project\\python\\qpd-test\\build\\main\\base_library.zip',
   'DATA')])
